{
    "name" : "Wiser Coming Soon Checker",
    "version" : "1.0.0",
    "requires" : "3.2",
    "tested" : "5.1.2",
    "upgrade_notice" : "Here's why you should upgrade...",
    "author" : "WiserSites",
	"author_homepage" : "http://wisersites.com/",
    "download_url" : "https://bitbucket.org/wisersites/wiser-coming-soon-checker-updates/downloads/wiser-coming-soon-checker_v1.0.0.zip",
    "sections" : {
        "description" : "Wiser Coming Soon Checker"
    }
}